{
  "project_info": {
    "project_number": "250672073120",
    "project_id": "notificationtest-6531b",
    "storage_bucket": "notificationtest-6531b.appspot.com"
  },
  "client": [
    {
      "client_info": {
        "mobilesdk_app_id": "1:250672073120:android:07117b7c0327cf4f1a7cc5",
        "android_client_info": {
          "package_name": "com.newtest"
        }
      },
      "oauth_client": [
        {
          "client_id": "250672073120-l34kvuumjmhnmnq75tepn1pen4in5v8u.apps.googleusercontent.com",
          "client_type": 1,
          "android_info": {
            "package_name": "com.newtest",
            "certificate_hash": "1e7ac93c6e502590106e3efa6800c0a3b322bf6f"
          }
        },
        {
          "client_id": "250672073120-1p43c8ud8ilkgie193sd8p9u8msrvni6.apps.googleusercontent.com",
          "client_type": 3
        }
      ],
      "api_key": [
        {
          "current_key": "AIzaSyDNLX2Rp2m4UhwCxndiVUwMlbS5Z7xT178"
        }
      ],
      "services": {
        "appinvite_service": {
          "other_platform_oauth_client": [
            {
              "client_id": "250672073120-1p43c8ud8ilkgie193sd8p9u8msrvni6.apps.googleusercontent.com",
              "client_type": 3
            }
          ]
        }
      }
    }
  ],
  "configuration_version": "1"
}